{"page":1,"per_page":15,"photos":[{"id":220201,"width":2200,"height":1464,"url":"https://www.pexels.com/photo/planet-earth-220201/","photographer":"Pixabay","photographer_url":"https://www.pexels.com/@pixabay","photographer_id":2659,"avg_color":"#23323F","src":{"original":"https://images.pexels.com/photos/220201/pexels-photo-220201.jpeg","large2x":"https://images.pexels.com/photos/220201/pexels-photo-220201.jpeg?auto=compress\u0026cs=tinysrgb\u0026dpr=2\u0026h=650\u0026w=940","large":"https://images.pexels.com/photos/220201/pexels-photo-220201.jpeg?auto=compress\u0026cs=tinysrgb\u0026h=650\u0026w=940","medium":"https://images.pexels.com/photos/220201/pexels-photo-220201.jpeg?auto=compress\u0026cs=tinysrgb\u0026h=350","small":"https://images.pexels.com/photos/220201/pexels-photo-220201.jpeg?auto=compress\u0026cs=tinysrgb\u0026h=130","portrait":"https://images.pexels.com/photos/220201/pexels-photo-220201.jpeg?auto=compress\u0026cs=tinysrgb\u0026fit=crop\u0026h=1200\u0026w=800","landscape":"https://images.pexels.com/photos/220201/pexels-photo-220201.jpeg?auto=compress\u0026cs=tinysrgb\u0026fit=crop\u0026h=627\u0026w=1200","tiny":"https://images.pexels.com/photos/220201/pexels-photo-220201.jpeg?auto=compress\u0026cs=tinysrgb\u0026dpr=1\u0026fit=crop\u0026h=200\u0026w=280"},"liked":false,"alt":"Planet Earth"},{"id":2150,"width":2500,"height":1794,"url":"https://www.pexels.com/photo/gray-and-black-galaxy-wallpaper-2150/","photographer":"Pixabay","photographer_url":"https://www.pexels.com/@pixabay","photographer_id":2659,"avg_color":"#383539","src":{"original":"https://images.pexels.com/photos/2150/sky-space-dark-galaxy.jpg","large2x":"https://images.pexels.com/photos/2150/sky-space-dark-galaxy.jpg?auto=compress\u0026cs=tinysrgb\u0026dpr=2\u0026h=650\u0026w=940","large":"https://images.pexels.com/photos/2150/sky-space-dark-galaxy.jpg?auto=compress\u0026cs=tinysrgb\u0026h=650\u0026w=940","medium":"https://images.pexels.com/photos/2150/sky-space-dark-galaxy.jpg?auto=compress\u0026cs=tinysrgb\u0026h=350","small":"https://images.pexels.com/photos/2150/sky-space-dark-galaxy.jpg?auto=compress\u0026cs=tinysrgb\u0026h=130","portrait":"https://images.pexels.com/photos/2150/sky-space-dark-galaxy.jpg?auto=compress\u0026cs=tinysrgb\u0026fit=crop\u0026h=1200\u0026w=800","landscape":"https://images.pexels.com/photos/2150/sky-space-dark-galaxy.jpg?auto=compress\u0026cs=tinysrgb\u0026fit=crop\u0026h=627\u0026w=1200","tiny":"https://images.pexels.com/photos/2150/sky-space-dark-galaxy.jpg?auto=compress\u0026cs=tinysrgb\u0026dpr=1\u0026fit=crop\u0026h=200\u0026w=280"},"liked":false,"alt":"Gray and Black Galaxy Wallpaper"},{"id":1252890,"width":6016,"height":3385,"url":"https://www.pexels.com/photo/milky-way-galaxy-during-nighttime-1252890/","photographer":"Hristo Fidanov","photographer_url":"https://www.pexels.com/@krisof","photographer_id":520662,"avg_color":"#252A34","src":{"original":"https://images.pexels.com/photos/1252890/pexels-photo-1252890.jpeg","large2x":"https://images.pexels.com/photos/1252890/pexels-photo-1252890.jpeg?auto=compress\u0026cs=tinysrgb\u0026dpr=2\u0026h=650\u0026w=940","large":"https://images.pexels.com/photos/1252890/pexels-photo-1252890.jpeg?auto=compress\u0026cs=tinysrgb\u0026h=650\u0026w=940","medium":"https://images.pexels.com/photos/1252890/pexels-photo-1252890.jpeg?auto=compress\u0026cs=tinysrgb\u0026h=350","small":"https://images.pexels.com/photos/1252890/pexels-photo-1252890.jpeg?auto=compress\u0026cs=tinysrgb\u0026h=130","portrait":"https://images.pexels.com/photos/1252890/pexels-photo-1252890.jpeg?auto=compress\u0026cs=tinysrgb\u0026fit=crop\u0026h=1200\u0026w=800","landscape":"https://images.pexels.com/photos/1252890/pexels-photo-1252890.jpeg?auto=compress\u0026cs=tinysrgb\u0026fit=crop\u0026h=627\u0026w=1200","tiny":"https://images.pexels.com/photos/1252890/pexels-photo-1252890.jpeg?auto=compress\u0026cs=tinysrgb\u0026dpr=1\u0026fit=crop\u0026h=200\u0026w=280"},"liked":false,"alt":"Milky Way Galaxy during Nighttime"},{"id":1169754,"width":5647,"height":3770,"url":"https://www.pexels.com/photo/milky-way-illustration-1169754/","photographer":"Philippe Donn","photographer_url":"https://www.pexels.com/@philippedonn","photographer_id":230606,"avg_color":"#1B1F29","src":{"original":"https://images.pexels.com/photos/1169754/pexels-photo-1169754.jpeg","large2x":"https://images.pexels.com/photos/1169754/pexels-photo-1169754.jpeg?auto=compress\u0026cs=tinysrgb\u0026dpr=2\u0026h=650\u0026w=940","large":"https://images.pexels.com/photos/1169754/pexels-photo-1169754.jpeg?auto=compress\u0026cs=tinysrgb\u0026h=650\u0026w=940","medium":"https://images.pexels.com/photos/1169754/pexels-photo-1169754.jpeg?auto=compress\u0026cs=tinysrgb\u0026h=350","small":"https://images.pexels.com/photos/1169754/pexels-photo-1169754.jpeg?auto=compress\u0026cs=tinysrgb\u0026h=130","portrait":"https://images.pexels.com/photos/1169754/pexels-photo-1169754.jpeg?auto=compress\u0026cs=tinysrgb\u0026fit=crop\u0026h=1200\u0026w=800","landscape":"https://images.pexels.com/photos/1169754/pexels-photo-1169754.jpeg?auto=compress\u0026cs=tinysrgb\u0026fit=crop\u0026h=627\u0026w=1200","tiny":"https://images.pexels.com/photos/1169754/pexels-photo-1169754.jpeg?auto=compress\u0026cs=tinysrgb\u0026dpr=1\u0026fit=crop\u0026h=200\u0026w=280"},"liked":false,"alt":"Milky Way Illustration"},{"id":87009,"width":2400,"height":2400,"url":"https://www.pexels.com/photo/blue-and-white-planet-display-87009/","photographer":"Pixabay","photographer_url":"https://www.pexels.com/@pixabay","photographer_id":2659,"avg_color":"#191917","src":{"original":"https://images.pexels.com/photos/87009/earth-soil-creep-moon-lunar-surface-87009.jpeg","large2x":"https://images.pexels.com/photos/87009/earth-soil-creep-moon-lunar-surface-87009.jpeg?auto=compress\u0026cs=tinysrgb\u0026dpr=2\u0026h=650\u0026w=940","large":"https://images.pexels.com/photos/87009/earth-soil-creep-moon-lunar-surface-87009.jpeg?auto=compress\u0026cs=tinysrgb\u0026h=650\u0026w=940","medium":"https://images.pexels.com/photos/87009/earth-soil-creep-moon-lunar-surface-87009.jpeg?auto=compress\u0026cs=tinysrgb\u0026h=350","small":"https://images.pexels.com/photos/87009/earth-soil-creep-moon-lunar-surface-87009.jpeg?auto=compress\u0026cs=tinysrgb\u0026h=130","portrait":"https://images.pexels.com/photos/87009/earth-soil-creep-moon-lunar-surface-87009.jpeg?auto=compress\u0026cs=tinysrgb\u0026fit=crop\u0026h=1200\u0026w=800","landscape":"https://images.pexels.com/photos/87009/earth-soil-creep-moon-lunar-surface-87009.jpeg?auto=compress\u0026cs=tinysrgb\u0026fit=crop\u0026h=627\u0026w=1200","tiny":"https://images.pexels.com/photos/87009/earth-soil-creep-moon-lunar-surface-87009.jpeg?auto=compress\u0026cs=tinysrgb\u0026dpr=1\u0026fit=crop\u0026h=200\u0026w=280"},"liked":false,"alt":"Blue and White Planet Display"},{"id":924824,"width":6144,"height":4096,"url":"https://www.pexels.com/photo/time-lapse-photo-of-stars-on-night-924824/","photographer":"Jakub Novacek","photographer_url":"https://www.pexels.com/@kubiceknov","photographer_id":172969,"avg_color":"#222028","src":{"original":"https://images.pexels.com/photos/924824/pexels-photo-924824.jpeg","large2x":"https://images.pexels.com/photos/924824/pexels-photo-924824.jpeg?auto=compress\u0026cs=tinysrgb\u0026dpr=2\u0026h=650\u0026w=940","large":"https://images.pexels.com/photos/924824/pexels-photo-924824.jpeg?auto=compress\u0026cs=tinysrgb\u0026h=650\u0026w=940","medium":"https://images.pexels.com/photos/924824/pexels-photo-924824.jpeg?auto=compress\u0026cs=tinysrgb\u0026h=350","small":"https://images.pexels.com/photos/924824/pexels-photo-924824.jpeg?auto=compress\u0026cs=tinysrgb\u0026h=130","portrait":"https://images.pexels.com/photos/924824/pexels-photo-924824.jpeg?auto=compress\u0026cs=tinysrgb\u0026fit=crop\u0026h=1200\u0026w=800","landscape":"https://images.pexels.com/photos/924824/pexels-photo-924824.jpeg?auto=compress\u0026cs=tinysrgb\u0026fit=crop\u0026h=627\u0026w=1200","tiny":"https://images.pexels.com/photos/924824/pexels-photo-924824.jpeg?auto=compress\u0026cs=tinysrgb\u0026dpr=1\u0026fit=crop\u0026h=200\u0026w=280"},"liked":false,"alt":"Time Lapse Photo of Stars on Night"},{"id":76969,"width":2772,"height":1890,"url":"https://www.pexels.com/photo/earth-planet-76969/","photographer":"Pixabay","photographer_url":"https://www.pexels.com/@pixabay","photographer_id":2659,"avg_color":"#686D75","src":{"original":"https://images.pexels.com/photos/76969/cold-front-warm-front-hurricane-felix-76969.jpeg","large2x":"https://images.pexels.com/photos/76969/cold-front-warm-front-hurricane-felix-76969.jpeg?auto=compress\u0026cs=tinysrgb\u0026dpr=2\u0026h=650\u0026w=940","large":"https://images.pexels.com/photos/76969/cold-front-warm-front-hurricane-felix-76969.jpeg?auto=compress\u0026cs=tinysrgb\u0026h=650\u0026w=940","medium":"https://images.pexels.com/photos/76969/cold-front-warm-front-hurricane-felix-76969.jpeg?auto=compress\u0026cs=tinysrgb\u0026h=350","small":"https://images.pexels.com/photos/76969/cold-front-warm-front-hurricane-felix-76969.jpeg?auto=compress\u0026cs=tinysrgb\u0026h=130","portrait":"https://images.pexels.com/photos/76969/cold-front-warm-front-hurricane-felix-76969.jpeg?auto=compress\u0026cs=tinysrgb\u0026fit=crop\u0026h=1200\u0026w=800","landscape":"https://images.pexels.com/photos/76969/cold-front-warm-front-hurricane-felix-76969.jpeg?auto=compress\u0026cs=tinysrgb\u0026fit=crop\u0026h=627\u0026w=1200","tiny":"https://images.pexels.com/photos/76969/cold-front-warm-front-hurricane-felix-76969.jpeg?auto=compress\u0026cs=tinysrgb\u0026dpr=1\u0026fit=crop\u0026h=200\u0026w=280"},"liked":false,"alt":"Earth Planet"},{"id":1142950,"width":4240,"height":2832,"url":"https://www.pexels.com/photo/photo-of-solar-system-1142950/","photographer":"Jacub Gomez","photographer_url":"https://www.pexels.com/@jacub-gomez-447561","photographer_id":447561,"avg_color":"#505B61","src":{"original":"https://images.pexels.com/photos/1142950/pexels-photo-1142950.jpeg","large2x":"https://images.pexels.com/photos/1142950/pexels-photo-1142950.jpeg?auto=compress\u0026cs=tinysrgb\u0026dpr=2\u0026h=650\u0026w=940","large":"https://images.pexels.com/photos/1142950/pexels-photo-1142950.jpeg?auto=compress\u0026cs=tinysrgb\u0026h=650\u0026w=940","medium":"https://images.pexels.com/photos/1142950/pexels-photo-1142950.jpeg?auto=compress\u0026cs=tinysrgb\u0026h=350","small":"https://images.pexels.com/photos/1142950/pexels-photo-1142950.jpeg?auto=compress\u0026cs=tinysrgb\u0026h=130","portrait":"https://images.pexels.com/photos/1142950/pexels-photo-1142950.jpeg?auto=compress\u0026cs=tinysrgb\u0026fit=crop\u0026h=1200\u0026w=800","landscape":"https://images.pexels.com/photos/1142950/pexels-photo-1142950.jpeg?auto=compress\u0026cs=tinysrgb\u0026fit=crop\u0026h=627\u0026w=1200","tiny":"https://images.pexels.com/photos/1142950/pexels-photo-1142950.jpeg?auto=compress\u0026cs=tinysrgb\u0026dpr=1\u0026fit=crop\u0026h=200\u0026w=280"},"liked":false,"alt":"Photo of Solar System"},{"id":2072600,"width":5760,"height":3840,"url":"https://www.pexels.com/photo/low-angle-photography-of-coconut-trees-under-a-starry-sky-2072600/","photographer":"Elina Sazonova","photographer_url":"https://www.pexels.com/@elina-sazonova","photographer_id":912559,"avg_color":"#2E3C3D","src":{"original":"https://images.pexels.com/photos/2072600/pexels-photo-2072600.jpeg","large2x":"https://images.pexels.com/photos/2072600/pexels-photo-2072600.jpeg?auto=compress\u0026cs=tinysrgb\u0026dpr=2\u0026h=650\u0026w=940","large":"https://images.pexels.com/photos/2072600/pexels-photo-2072600.jpeg?auto=compress\u0026cs=tinysrgb\u0026h=650\u0026w=940","medium":"https://images.pexels.com/photos/2072600/pexels-photo-2072600.jpeg?auto=compress\u0026cs=tinysrgb\u0026h=350","small":"https://images.pexels.com/photos/2072600/pexels-photo-2072600.jpeg?auto=compress\u0026cs=tinysrgb\u0026h=130","portrait":"https://images.pexels.com/photos/2072600/pexels-photo-2072600.jpeg?auto=compress\u0026cs=tinysrgb\u0026fit=crop\u0026h=1200\u0026w=800","landscape":"https://images.pexels.com/photos/2072600/pexels-photo-2072600.jpeg?auto=compress\u0026cs=tinysrgb\u0026fit=crop\u0026h=627\u0026w=1200","tiny":"https://images.pexels.com/photos/2072600/pexels-photo-2072600.jpeg?auto=compress\u0026cs=tinysrgb\u0026dpr=1\u0026fit=crop\u0026h=200\u0026w=280"},"liked":false,"alt":"Low Angle Photography of Coconut Trees Under A Starry Sky"},{"id":2706654,"width":6000,"height":4000,"url":"https://www.pexels.com/photo/milk-way-2706654/","photographer":"Nicole Avagliano","photographer_url":"https://www.pexels.com/@nicole-avagliano-1132392","photographer_id":1132392,"avg_color":"#163048","src":{"original":"https://images.pexels.com/photos/2706654/pexels-photo-2706654.jpeg","large2x":"https://images.pexels.com/photos/2706654/pexels-photo-2706654.jpeg?auto=compress\u0026cs=tinysrgb\u0026dpr=2\u0026h=650\u0026w=940","large":"https://images.pexels.com/photos/2706654/pexels-photo-2706654.jpeg?auto=compress\u0026cs=tinysrgb\u0026h=650\u0026w=940","medium":"https://images.pexels.com/photos/2706654/pexels-photo-2706654.jpeg?auto=compress\u0026cs=tinysrgb\u0026h=350","small":"https://images.pexels.com/photos/2706654/pexels-photo-2706654.jpeg?auto=compress\u0026cs=tinysrgb\u0026h=130","portrait":"https://images.pexels.com/photos/2706654/pexels-photo-2706654.jpeg?auto=compress\u0026cs=tinysrgb\u0026fit=crop\u0026h=1200\u0026w=800","landscape":"https://images.pexels.com/photos/2706654/pexels-photo-2706654.jpeg?auto=compress\u0026cs=tinysrgb\u0026fit=crop\u0026h=627\u0026w=1200","tiny":"https://images.pexels.com/photos/2706654/pexels-photo-2706654.jpeg?auto=compress\u0026cs=tinysrgb\u0026dpr=1\u0026fit=crop\u0026h=200\u0026w=280"},"liked":false,"alt":"Milk Way"},{"id":3805983,"width":3698,"height":2264,"url":"https://www.pexels.com/photo/photo-of-supernova-in-galaxy-3805983/","photographer":"Alex Andrews","photographer_url":"https://www.pexels.com/@alex-andrews-271121","photographer_id":271121,"avg_color":"#242321","src":{"original":"https://images.pexels.com/photos/3805983/pexels-photo-3805983.jpeg","large2x":"https://images.pexels.com/photos/3805983/pexels-photo-3805983.jpeg?auto=compress\u0026cs=tinysrgb\u0026dpr=2\u0026h=650\u0026w=940","large":"https://images.pexels.com/photos/3805983/pexels-photo-3805983.jpeg?auto=compress\u0026cs=tinysrgb\u0026h=650\u0026w=940","medium":"https://images.pexels.com/photos/3805983/pexels-photo-3805983.jpeg?auto=compress\u0026cs=tinysrgb\u0026h=350","small":"https://images.pexels.com/photos/3805983/pexels-photo-3805983.jpeg?auto=compress\u0026cs=tinysrgb\u0026h=130","portrait":"https://images.pexels.com/photos/3805983/pexels-photo-3805983.jpeg?auto=compress\u0026cs=tinysrgb\u0026fit=crop\u0026h=1200\u0026w=800","landscape":"https://images.pexels.com/photos/3805983/pexels-photo-3805983.jpeg?auto=compress\u0026cs=tinysrgb\u0026fit=crop\u0026h=627\u0026w=1200","tiny":"https://images.pexels.com/photos/3805983/pexels-photo-3805983.jpeg?auto=compress\u0026cs=tinysrgb\u0026dpr=1\u0026fit=crop\u0026h=200\u0026w=280"},"liked":false,"alt":"Photo of Supernova in Galaxy"},{"id":1252873,"width":5647,"height":3770,"url":"https://www.pexels.com/photo/scenic-view-of-night-sky-1252873/","photographer":"Hristo Fidanov","photographer_url":"https://www.pexels.com/@krisof","photographer_id":520662,"avg_color":"#23415D","src":{"original":"https://images.pexels.com/photos/1252873/pexels-photo-1252873.jpeg","large2x":"https://images.pexels.com/photos/1252873/pexels-photo-1252873.jpeg?auto=compress\u0026cs=tinysrgb\u0026dpr=2\u0026h=650\u0026w=940","large":"https://images.pexels.com/photos/1252873/pexels-photo-1252873.jpeg?auto=compress\u0026cs=tinysrgb\u0026h=650\u0026w=940","medium":"https://images.pexels.com/photos/1252873/pexels-photo-1252873.jpeg?auto=compress\u0026cs=tinysrgb\u0026h=350","small":"https://images.pexels.com/photos/1252873/pexels-photo-1252873.jpeg?auto=compress\u0026cs=tinysrgb\u0026h=130","portrait":"https://images.pexels.com/photos/1252873/pexels-photo-1252873.jpeg?auto=compress\u0026cs=tinysrgb\u0026fit=crop\u0026h=1200\u0026w=800","landscape":"https://images.pexels.com/photos/1252873/pexels-photo-1252873.jpeg?auto=compress\u0026cs=tinysrgb\u0026fit=crop\u0026h=627\u0026w=1200","tiny":"https://images.pexels.com/photos/1252873/pexels-photo-1252873.jpeg?auto=compress\u0026cs=tinysrgb\u0026dpr=1\u0026fit=crop\u0026h=200\u0026w=280"},"liked":false,"alt":"Scenic View Of Night Sky"},{"id":2666598,"width":6000,"height":3376,"url":"https://www.pexels.com/photo/photo-of-teepee-under-a-starry-sky-2666598/","photographer":"Chait Goli","photographer_url":"https://www.pexels.com/@chaitaastic","photographer_id":876963,"avg_color":"#252F3B","src":{"original":"https://images.pexels.com/photos/2666598/pexels-photo-2666598.jpeg","large2x":"https://images.pexels.com/photos/2666598/pexels-photo-2666598.jpeg?auto=compress\u0026cs=tinysrgb\u0026dpr=2\u0026h=650\u0026w=940","large":"https://images.pexels.com/photos/2666598/pexels-photo-2666598.jpeg?auto=compress\u0026cs=tinysrgb\u0026h=650\u0026w=940","medium":"https://images.pexels.com/photos/2666598/pexels-photo-2666598.jpeg?auto=compress\u0026cs=tinysrgb\u0026h=350","small":"https://images.pexels.com/photos/2666598/pexels-photo-2666598.jpeg?auto=compress\u0026cs=tinysrgb\u0026h=130","portrait":"https://images.pexels.com/photos/2666598/pexels-photo-2666598.jpeg?auto=compress\u0026cs=tinysrgb\u0026fit=crop\u0026h=1200\u0026w=800","landscape":"https://images.pexels.com/photos/2666598/pexels-photo-2666598.jpeg?auto=compress\u0026cs=tinysrgb\u0026fit=crop\u0026h=627\u0026w=1200","tiny":"https://images.pexels.com/photos/2666598/pexels-photo-2666598.jpeg?auto=compress\u0026cs=tinysrgb\u0026dpr=1\u0026fit=crop\u0026h=200\u0026w=280"},"liked":false,"alt":"Photo of Teepee Under A Starry Sky"},{"id":2873669,"width":4429,"height":3543,"url":"https://www.pexels.com/photo/starry-skies-in-timelapse-2873669/","photographer":"Guillaume Meurice","photographer_url":"https://www.pexels.com/@sliceisop","photographer_id":188188,"avg_color":"#052346","src":{"original":"https://images.pexels.com/photos/2873669/pexels-photo-2873669.jpeg","large2x":"https://images.pexels.com/photos/2873669/pexels-photo-2873669.jpeg?auto=compress\u0026cs=tinysrgb\u0026dpr=2\u0026h=650\u0026w=940","large":"https://images.pexels.com/photos/2873669/pexels-photo-2873669.jpeg?auto=compress\u0026cs=tinysrgb\u0026h=650\u0026w=940","medium":"https://images.pexels.com/photos/2873669/pexels-photo-2873669.jpeg?auto=compress\u0026cs=tinysrgb\u0026h=350","small":"https://images.pexels.com/photos/2873669/pexels-photo-2873669.jpeg?auto=compress\u0026cs=tinysrgb\u0026h=130","portrait":"https://images.pexels.com/photos/2873669/pexels-photo-2873669.jpeg?auto=compress\u0026cs=tinysrgb\u0026fit=crop\u0026h=1200\u0026w=800","landscape":"https://images.pexels.com/photos/2873669/pexels-photo-2873669.jpeg?auto=compress\u0026cs=tinysrgb\u0026fit=crop\u0026h=627\u0026w=1200","tiny":"https://images.pexels.com/photos/2873669/pexels-photo-2873669.jpeg?auto=compress\u0026cs=tinysrgb\u0026dpr=1\u0026fit=crop\u0026h=200\u0026w=280"},"liked":false,"alt":"Starry Skies In Timelapse"},{"id":6498990,"width":5279,"height":3528,"url":"https://www.pexels.com/photo/scenic-view-of-galaxy-in-space-6498990/","photographer":"Adam Krypel","photographer_url":"https://www.pexels.com/@adam-krypel-19165796","photographer_id":19165796,"avg_color":"#252327","src":{"original":"https://images.pexels.com/photos/6498990/pexels-photo-6498990.jpeg","large2x":"https://images.pexels.com/photos/6498990/pexels-photo-6498990.jpeg?auto=compress\u0026cs=tinysrgb\u0026dpr=2\u0026h=650\u0026w=940","large":"https://images.pexels.com/photos/6498990/pexels-photo-6498990.jpeg?auto=compress\u0026cs=tinysrgb\u0026h=650\u0026w=940","medium":"https://images.pexels.com/photos/6498990/pexels-photo-6498990.jpeg?auto=compress\u0026cs=tinysrgb\u0026h=350","small":"https://images.pexels.com/photos/6498990/pexels-photo-6498990.jpeg?auto=compress\u0026cs=tinysrgb\u0026h=130","portrait":"https://images.pexels.com/photos/6498990/pexels-photo-6498990.jpeg?auto=compress\u0026cs=tinysrgb\u0026fit=crop\u0026h=1200\u0026w=800","landscape":"https://images.pexels.com/photos/6498990/pexels-photo-6498990.jpeg?auto=compress\u0026cs=tinysrgb\u0026fit=crop\u0026h=627\u0026w=1200","tiny":"https://images.pexels.com/photos/6498990/pexels-photo-6498990.jpeg?auto=compress\u0026cs=tinysrgb\u0026dpr=1\u0026fit=crop\u0026h=200\u0026w=280"},"liked":false,"alt":"Scenic View of Galaxy in Space"}],"total_results":8000,"next_page":"https://api.pexels.com/v1/search/?page=2\u0026per_page=15\u0026query=space"}